<?xml version="1.0" standalone="no"?>
<!DOCTYPE svg PUBLIC "-//W3C//DTD SVG 20010904//EN"
 "http://www.w3.org/TR/2001/REC-SVG-20010904/DTD/svg10.dtd">
<svg version="1.0" xmlns="http://www.w3.org/2000/svg"
 width="700.000000pt" height="700.000000pt" viewBox="0 0 700.000000 700.000000"
 preserveAspectRatio="xMidYMid meet">
<metadata>
Created by potrace 1.11, written by Peter Selinger 2001-2013
</metadata>
<g transform="translate(0.000000,700.000000) scale(0.100000,-0.100000)"
fill="#000000" stroke="none">
<path d="M3133 6925 c-1200 -137 -2216 -856 -2737 -1937 -160 -330 -258 -660
-313 -1048 -25 -179 -25 -702 0 -879 93 -650 336 -1221 724 -1706 562 -701
1347 -1145 2248 -1270 158 -23 575 -31 743 -16 908 83 1720 501 2315 1190 404
468 677 1049 782 1658 62 365 60 825 -5 1193 -170 951 -739 1790 -1567 2313
-146 92 -457 245 -625 307 -231 85 -487 149 -748 186 -160 22 -651 28 -817 9z
m1794 -2740 c590 -1001 1073 -1823 1073 -1827 0 -5 -801 -8 -1780 -8 -979 0
-1780 2 -1780 5 0 3 88 165 196 360 l197 355 1028 2 1028 3 -865 1463 c-475
805 -864 1466 -864 1468 0 2 156 3 347 2 l347 -3 1073 -1820z m-1297 957 c272
-460 652 -1102 843 -1426 192 -325 351 -596 354 -603 4 -11 -58 -13 -338 -11
l-342 3 -338 555 c-186 305 -413 680 -506 832 -92 153 -171 278 -174 278 -3 0
-410 -705 -904 -1566 l-899 -1566 -175 350 -175 350 634 1073 c348 591 832
1410 1074 1821 243 412 443 748 446 748 3 -1 228 -377 500 -838z m-350 -669
c80 -130 146 -242 148 -248 2 -10 -200 -380 -826 -1512 -117 -210 -212 -385
-212 -388 0 -3 815 -5 1810 -5 l1810 0 -175 -350 -175 -350 -2151 0 c-1807 0
-2150 2 -2147 14 4 19 1761 3076 1768 3076 3 0 70 -107 150 -237z"/>
</g>
</svg>
